Cdc28	YBR160W
Mcm1	YMR043W
Cln3	YAL040C
Whi5	YOR083W
Stb1	YNL309W
Swi4	YER111C
Swi6	YLR182W
Mbp1	YDL056W
Cdh1	YGL003C
Sic1	YLR079W
Yox1	YML027W
Yhp1	YDR451C
Nrm1	YNR009W
Hcm1	YCR065W
Plm2	YDR501W
Tos4	YLR183C
Cln1	YMR199W
Cln2	YPL256C
Clb5	YPR120C
Clb6	YGR109C
Clb1	YGR108W
Clb2	YPR119W
Ndd1	YOR372C
Fkh1	YIL131C
Fkh2	YNL068C
Ace2	YLR131C
Swi5	YDR146C
Cdc20	YGL116W
Cdc14	YFR028C
Fhl1	YPR104C